SetFactory("OpenCASCADE");

Point(1) = {0,0,0,0.5};

Point(2) = {1,0,0,0.5};
Point(3) = {0,1,0,0.5};
Point(4) = {-1,0,0,0.5};
Point(5) = {0,-1,0,0.5};

Circle(1) = {2,1,3};
Circle(2) = {3,1,4};
Circle(3) = {4,1,5};
Circle(4) = {5,1,2};

Line Loop(5) = {1,2,3,4};
Plane Surface(6) = {5};

Extrude {0,0,1} {
  Surface{6};
}

//+
Physical Surface("face1",1) = {6};
//+
Physical Surface("face2",2) = {11};
//+
Physical Volume("volume",3) = {1};
